{
    "entrypoint": "index.html",
    "shell": "src/app-main.html",
    "fragments": [
        "src/sb-commands.html",
        "src/sb-login.html",
        "src/sb-plugins.html",
        "src/sb-config.html",
        "src/sb-info.html",
        "src/view-404.html"
    ],
    "sources": [
        "src/**/*",
        "images/**/*"
    ],
    "extraDependencies": [
        "manifest.json",
        "bower_components/webcomponentsjs/*.js"
    ],
    "lint": {
        "rules": [
            "polymer-2"
        ]
    },
    "builds": [
        {
            "name": "../../views/botsys",
            "basePath": "/",
            "browserCapabilities": ["es2015"],
            "bundle": true,
            "js": {
                "minify": true
            },
            "css": {
                "minify": true
            },
            "html": {
                "minify": true
            },
            "addServiceWorker": true,
            "addPushManifest": false,
            "insertPrefetchLinks": true,
            "stripComments": true
        }
    ]
}