[
    {
        "main": "master_commands.js",
        "description": "Default commands, such as setting prefix. Owner commands included.",
        "name": "default",
        "commands": {
            "prefix": {
                "usage": "prefix <new prefix>",
                "description": "This will set the prefix used by me on the particular guild. A must set command when the bot is new to your server.",
                "modulename": "master_commands",
                "guildOnly": true,
                "member": [
                    "MANAGE_GUILD"
                ],
                "aliases": [
                    "setprefix"
                ]
            },
            "exec": {
                "usage": "exec <javascript code>",
                "description": "Allows my owner to execute JavaScript with access to my main \"Bot\" object.",
                "aliases": [
                    "ev",
                    "eval",
                    "execute"
                ],
                "owner": true
            },
            "leave": {
                "usage": "leave <guild-snowflake>",
                "description": "Leaves a guild.",
                "owner": true
            },
            "say": {
                "usage": "say <something>",
                "description": "Good for testing whether or not other bots ignore other bots.",
                "modulename": "master_commands"
            },
            "blacklistguild": {
                "usage": "blg <guild_id>",
                "description": "Makes me ignore (or undo a previous ignore) guilds!",
                "owner": true,
                "modulename": "master_commands",
                "aliases": [
                    "blg"
                ]
            },
            "blacklistuser": {
                "usage": "blu <user_id>",
                "description": "Makes me ignore (or undo a previous ignore) users!",
                "owner": true,
                "modulename": "master_commands",
                "aliases": [
                    "blu"
                ]
            },
            "reloadcommands": {
                "modulename": "master_commands",
                "aliases": [
                    "reload",
                    "rc"
                ],
                "owner": true
            },
            "listguilds": {
                "modulename": "master_commands",
                "owner": true,
                "aliases": [
                    "lg",
                    "gl"
                ]
            },
            "setavatar": {
                "owner": true,
                "aliases": [
                    "sa",
                    "setav"
                ],
                "modulename": "master_commands"
            }
        },
        "enabled": true
    },
    {
        "main": "admin.js",
        "description": "Administrative commands.",
        "dependencies": {
            "compendium-js": "^0.0.28"
        },
        "name": "admin",
        "commands": {
            "nick": {
                "usage": "nick <@user> <new nickname>",
                "description": "Changes a users nickname",
                "client": [
                    "CHANGE_NICKNAME",
                    "MANAGE_NICKNAMES"
                ],
                "member": [
                    "CHANGE_NICKNAME"
                ],
                "guildOnly": true,
                "modulename": "admin"
            },
            "undelete": {
                "usage": "undelete <@user|id>",
                "description": "Lists deleted message for a @mentioned user unless the message was deleted in a bulk delete action performed by a bot.\nIn some cases it doesn't save the message when a server owner performed the delete for some reason.",
                "client": [
                    "MANAGE_MESSAGES"
                ],
                "member": [
                    "MANAGE_MESSAGES"
                ],
                "modulename": "admin",
                "aliases": [
                    "udm",
                    "un"
                ]
            },
            "prune": {
                "usage": "prune [n] [@users(s)]",
                "description": "Bulk deletes messages, if a user isn't mention, I'll just delete everything.",
                "client": [
                    "MANAGE_MESSAGES"
                ],
                "member": [
                    "MANAGE_MESSAGES"
                ],
                "modulename": "admin",
                "aliases": [
                    "delete",
                    "del"
                ],
                "owner": true
            },
            "metrics": {
                "usage": "metrics @user",
                "description": "Shows you a list of the mentioned users top favorite words",
                "modulename": "admin",
                "aliases": [
                    "met"
                ]
            }
        },
        "enabled": true
    },
    {
        "main": "astronomy.js",
        "description": "Commands for NASA related material.",
        "name": "astronomy",
        "commands": {
            "sun": {
                "usage": "sun",
                "description": "Posts some live stats on our hellish mass of flames we revolve around.",
                "modulename": "astronomy",
                "client": [
                    "ATTACH_FILES"
                ],
                "throttle": 900000
            },
            "nasa": {
                "usage": "nasa <query>",
                "description": "Retrieves an image from nasa!",
                "modulename": "astronomy",
                "throttle": 3000
            }
        },
        "enabled": true
    },
    {
        "main": "auto-react.js",
        "description": "Automatic custom reactions.",
        "name": "auto-reaction",
        "enabled": true
    },
    {
        "main": "gta-ponyville.js",
        "description": "RNG based Text game with currency.",
        "name": "economy",
        "commands": {
            "pay": {
                "usage": "pay",
                "description": "Gives you some bits. 1 bit per minute.",
                "modulename": "gta-ponyville",
                "throttle": 1500
            },
            "inv": {
                "usage": "inv",
                "description": "Shows your inventory.",
                "modulename": "gta-ponyville",
                "throttle": 1500
            },
            "stats": {
                "usage": "stats",
                "description": "Shows your progress.",
                "modulename": "gta-ponyville",
                "throttle": 1500
            },
            "wallet": {
                "usage": "wallet",
                "description": "Bits and bank info.",
                "modulename": "gta-ponyville",
                "throttle": 1500
            },
            "spy": {
                "usage": "spy <mention>",
                "description": "Gathers intelligence on a target.",
                "modulename": "gta-ponyville",
                "throttle": 1500
            },
            "bank": {
                "usage": "bank <command> [parameters]",
                "description": "parameters enclosed in brackets \"[]\" are optional.\n\tBank commands and parameters:\n\t\topen <bank-tier>\n\t\twithdraw <bits-amount> [routing_number]\n\t\tdeposit <bits-amount> [routing_number]",
                "modulename": "gta-ponyville",
                "throttle": 1500
            },
            "skills": {
                "usage": "skills <command> [parameters]",
                "description": "Skill assignment commands and parameters:\n\t\tlearn <skill>\n\t\tinfo <skill>\n\t\treset",
                "modulename": "gta-ponyville",
                "throttle": 1500
            },
            "shop": {
                "usage": "shop <command> [parameters]",
                "description": "buy something with the shop command lol\n\t\tshop <buy|sell> [item]\n\t\tshop <unequip|equip> <item>",
                "modulename": "gta-ponyville",
                "throttle": 1500
            },
            "steal": {
                "modulename": "gta-ponyville"
            },
            "test_xp": {
                "modulename": "gta-ponyville"
            }
        },
        "enabled": true
    },
    {
        "main": "guestbook-globe.js",
        "description": "A WebGL based 3D globe that supports pinning markers via bot commands.",
        "name": "map",
        "commands": {},
        "enabled": true
    },
    {
        "main": "misc.js",
        "description": "Misc commands...",
        "name": "misc",
        "commands": {
            "ponycountdown": {
                "usage": "ponycountdown",
                "description": "Tells you the time until the next pony episode.",
                "modulename": "misc",
                "aliases": [
                    "pc"
                ]
            },
            "conspiracy": {
                "usage": "conspiracy",
                "description": "Random conspiracy!",
                "modulename": "misc"
            },
            "lmgtfy": {
                "usage": "lmgtfy <query>",
                "description": "Gives you a lmgtfy link.",
                "modulename": "misc"
            },
            "8ball": {
                "usage": "8ball <question>",
                "aliases": [
                    "8b"
                ],
                "modulename": "misc",
                "throttle": 2000,
                "description": "Ask the magic 8 ball!"
            },
            "flip": {
                "usage": "flip",
                "description": "flips a coin",
                "modulename": "misc",
                "throttle": 1500
            },
            "bible": {
                "usage": "bible",
                "description": "Returns a random verse from the bible.",
                "aliases": [
                    "rv"
                ],
                "throttle": 3000,
                "modulename": "misc"
            },
            "donate": {
                "description": "donate to the bot"
            }
        },
        "enabled": true
    },
    {
        "name": "private",
        "description": "Bot manager commands for SkittyBot.",
        "author": "ScriptKitty",
        "main": "private.js",
        "commands": {
            "eav": {
                "owner": true,
                "modulename": "private"
            },
            "fetch": {
                "owner": true,
                "modulename": "private"
            }
        },
        "enabled": true
    },
    {
        "main": "reddit.js",
        "description": "Allows users to subscribe to subreddits in a channel.",
        "dependencies": {
            "unescape": "^1.0.1"
        },
        "name": "reddit",
        "commands": {
            "reddit": {
                "usage": "reddit [follow|unfollow|following] subreddit_name [hot|top|new|rising|controversial]?",
                "description": "follow - tells me that you want to follow a subreddit on this channel\n\t\tAliases: f\n\tunfollow - tells me that you want to unfollow a subreddit on this channel\n\t\tAliases: u, un, unf\n\tfollowing - gives you a list of the subreddits you're following on this channel\n\t\tAliases: list, l",
                "modulename": "reddit",
                "guildOnly": true,
                "aliases": [
                    "r"
                ],
                "throttle": 2000
            }
        },
        "enabled": true
    },
    {
        "main": "searches.js",
        "description": "Search type commands for various services.",
        "name": "searches",
        "commands": {
            "searchsteam": {
                "usage": "searchsteam <game-title>",
                "description": "Shows you some basic info on the game and a link to the store page.",
                "modulename": "searches",
                "aliases": [
                    "ss",
                    "steam"
                ],
                "throttle": 3000
            },
            "randomreddit": {
                "usage": "randomreddit <subreddit>",
                "description": "Pulls a random post off your favorite subreddit.",
                "modulename": "searches",
                "aliases": [
                    "rr"
                ],
                "throttle": 3000
            },
            "wikipedia": {
                "usage": "wikipedia <query>",
                "description": "Finds things on wikipedia lol",
                "modulename": "searches",
                "aliases": [
                    "wp"
                ],
                "throttle": 3000
            },
            "npmjs": {
                "usage": "npmjs <module-name>",
                "description": "Pulls up a link and basic info on your module of interest",
                "modulename": "searches",
                "aliases": [
                    "npm"
                ],
                "throttle": 3000
            },
            "gif": {
                "usage": "gif <query>",
                "description": "Finds a gif on giphy matching your text!",
                "modulename": "searches",
                "aliases": [
                    "gp"
                ],
                "throttle": 3000
            },
            "movie": {
                "usage": "movie <query>",
                "description": "Finds a movie using omdbapi!",
                "modulename": "searches",
                "aliases": [
                    "imdb",
                    "omdb",
                    "movies"
                ],
                "throttle": 3000
            },
            "urbandictionary": {
                "usage": "urbandisctionary <query>",
                "description": "A command no bot can be without, find definitions to street slang with this command!",
                "modulename": "searches",
                "aliases": [
                    "ud"
                ],
                "throttle": 3000
            },
            "derpibooru": {
                "usage": "derpibooru <query>",
                "description": "Pulls a random image from derpibooru matching your text! Note: only delivers NSFW images in private messages or NSFW channels!",
                "modulename": "searches",
                "aliases": [
                    "db",
                    "rb",
                    "pony",
                    "poni"
                ],
                "throttle": 3000
            },
            "searchyoutube": {
                "usage": "searchyoutube <query>",
                "description": "Finds a youtube video!",
                "modulename": "searches",
                "aliases": [
                    "syt",
                    "video",
                    "vid"
                ],
                "client": [
                    "ADD_REACTIONS",
                    "MANAGE_MESSAGES"
                ],
                "throttle": 3000
            },
            "iot": {
                "owner": true,
                "aliases": [
                    "siot"
                ],
                "modulename": "searches"
            }
        },
        "enabled": true
    },
    {
        "main": "twitter.js",
        "description": "Allows users to follow twitter users in a channel.",
        "dependencies": {
            "twit": "^2.2.9",
            "unescape": "^1.0.1"
        },
        "name": "twitter",
        "commands": {
            "twitter": {
                "usage": "twitter <follow|unfollow|following> [twitter-name]",
                "description": "follow - tells me that you want to follow a twitter use on this channel\n\t\tAliases: f\n\tunfollow - tells me that you want to unfollow a twitter user on this channel\n\t\tAliases: u, un, unf\n\tfollowing - gives you a list of the users you're following on this channel\n\t\tAliases: list, l",
                "modulename": "twitter",
                "aliases": [
                    "twit",
                    "t"
                ],
                "guildOnly": true,
                "throttle": 5000
            }
        },
        "enabled": true
    },
    {
        "main": "utility.js",
        "description": "Invite command, status, resource and status commands, etc.",
        "name": "utility",
        "commands": {
            "invite": {
                "usage": "invite",
                "description": "I'll give you a link you can use to invite me to a server you own with this.",
                "throttle": 7000,
                "modulename": "utility"
            },
            "botstatus": {
                "usage": "status",
                "description": "Responds with bot operation information.",
                "modulename": "utility",
                "throttle": 2500,
                "aliases": [
                    "botstats",
                    "bot_stats",
                    "bot_stat"
                ]
            },
            "guildinfo": {
                "usage": "guildinfo",
                "aliases": [
                    "gi"
                ],
                "guildOnly": true,
                "modulename": "utility",
                "throttle": 5000,
                "description": "Shows you some info on the guild."
            },
            "info": {
                "usage": "info",
                "description": "Shows you information on my owner and where you can find my source.",
                "modulename": "utility",
                "throttle": 180000
            },
            "help": {
                "throttle": 3000,
                "modulename": "utility"
            },
            "avatar": {
                "usage": "avatar <user>",
                "aliases": [
                    "av"
                ],
                "modulename": "utility",
                "throttle": 3000,
                "description": "Grabs a users avatar..."
            },
            "userinfo": {
                "usage": "userinfo <user>",
                "description": "Shows you a bit of information on a particular user.",
                "modulename": "utility",
                "aliases": [
                    "ui"
                ],
                "throttle": 3000
            },
            "bitcoin": {
                "usage": "bitcoin",
                "description": "Returns the weighted price of the past 24 hours.",
                "aliases": [
                    "btc"
                ],
                "throttle": 7000,
                "modulename": "utility"
            },
            "ping": {
                "usage": "ping",
                "description": "Returns my latency.",
                "modulename": "utility"
            },
            "pm_skitty": {
                "modulename": "utility",
                "throttle": 3600000,
                "guildOnly": true
            },
            "suggest": {
                "usage": "suggest <suggestion text>",
                "description": "You can use this command to suggest something bot related to my owner. It has a cool-down of one hour and limited to 2000 characters.",
                "modulename": "utility",
                "throttle": 3600000,
                "guildOnly": true
            }
        },
        "enabled": true
    },
    {
        "main": "youtube.js",
        "description": "Allows users to subscribe to YouTube channels in a channel.",
        "dependencies": {
            "xml2js": "^0.4.19"
        },
        "name": "youtube",
        "commands": {
            "youtube": {
                "usage": "youtube [subscribe|unsubscribe|subscriptions] [youtube channel url]",
                "description": "subscribe - tells me that you want to subscribe to a youtube channel in this channel\n\t\tAliases: s, sub\n\tunsubscribe - tells me that you want to unsubscribe a youtube channel in this channel\n\t\tAliases: u, un, uns\n\tsubscriptions - gives you a list of the youtube channels you're subscribed to in this channel\n\t\tAliases: subs, list, l",
                "modulename": "youtube",
                "guildOnly": true,
                "aliases": [
                    "yt"
                ],
                "throttle": 2000
            }
        },
        "enabled": true
    }
]